{
  "version": "v4",
  "repo": "borisyankov/DefinitelyTyped",
  "ref": "master",
  "path": "typings",
  "bundle": "typings/tsd.d.ts",
  "installed": {
    "sinon-chai/sinon-chai.d.ts": {
      "commit": "67605e10f6eb01c9d4a0d13719d804d6dea9e1cb"
    },
    "sinon/sinon.d.ts": {
      "commit": "67605e10f6eb01c9d4a0d13719d804d6dea9e1cb"
    },
    "moment/moment.d.ts": {
      "commit": "de1bfe2c1de921da660cc17a5af1de6c095b35eb"
    },
    "moment/moment-node.d.ts": {
      "commit": "de1bfe2c1de921da660cc17a5af1de6c095b35eb"
    },
    "node/node.d.ts": {
      "commit": "3db73cb78cb08ef2315d756d1a614fda84b26df3"
    }
  }
}
